[
  {
    "name": "Ноутбук ASUS 502N",
    "price": "18 299",
    "url": "./imgProducts/231256.jpg",
    "id": "231256",
    "color": "black"
  },
  {
    "name": "Ноутбук ASUS HN057",
    "price": "32 999",
    "url": "./imgProducts/231258.jpg",
    "id": "231258",
    "color": "red"
  },
  {
    "name": "Ноутбук HP cw1002ua",
    "price": "20 499",
    "url": "./imgProducts/231252.jpg",
    "id": "231252",
    "color": "black"
  },
  {
    "name": "Ноутбук MSI A10RAS",
    "price": "28 888",
    "url": "./imgProducts/231254.jpg",
    "id": "231254",
    "color": "pink"
  },
  {
    "name": "Телефон Samsung SM-M317",
    "price": "7 799",
    "url": "./imgProducts/231223.jpg",
    "id": "231223",
    "color": "blue"
  },
  {
    "name": "Телефон Apple iPhone SE",
    "price": "14 999",
    "url": "./imgProducts/231225.jpg",
    "id": "231225",
    "color": "white"
  },
  {
    "name": "Телефон  ZTE Blade 20",
    "price": "3 999",
    "url": "./imgProducts/231227.jpg",
    "id": "231227",
    "color": "green"
  },
  {
    "name": "Телефон Nokia 2.3",
    "price": "2 799",
    "url": "./imgProducts/231229.jpg",
    "id": "231229",
    "color": "gold"
  },
  {
    "name": "Холодильник TOSHIBA RB440WE",
    "price": "15 999",
    "url": "./imgProducts/231241.jpg",
    "id": "231241",
    "color": "grey"
  },
  {
    "name": "Холодильник SHARP T1227M5W",
    "price": "5 599",
    "url": "./imgProducts/231243.jpg",
    "id": "231243",
    "color": "white"
  },
  {
    "name": "Холодильник VESTFROST VD142RS",
    "price": "3 799",
    "url": "./imgProducts/231245.jpg",
    "id": "231245",
    "color": "silver"
  },
  {
    "name": "Холодильник TOSHIBA RS508WE",
    "price": "22 999",
    "url": "./imgProducts/231249.jpg",
    "id": "231249",
    "color": "grey"
  }
]